<svg width="124" height="99" viewBox="0 0 124 99" fill="none" xmlns="http://www.w3.org/2000/svg">
<g clip-path="url(#clip0)">
<path d="M37.2 74.25H74.4C84.6688 74.25 93 65.9355 93 55.6875H99.2C112.879 55.6875 124 44.5887 124 30.9375C124 17.2863 112.879 6.1875 99.2 6.1875H23.25C20.6731 6.1875 18.6 8.25645 18.6 10.8281V55.6875C18.6 65.9355 26.9312 74.25 37.2 74.25ZM99.2 18.5625C106.039 18.5625 111.6 24.1119 111.6 30.9375C111.6 37.7631 106.039 43.3125 99.2 43.3125H93V18.5625H99.2ZM108.442 92.8125H9.35813C0.135625 92.8125 -2.46063 80.4375 2.38313 80.4375H115.397C120.241 80.4375 117.684 92.8125 108.442 92.8125Z" fill="#161928"/>
</g>
<defs>
<clipPath id="clip0">
<rect width="124" height="99" fill="white"/>
</clipPath>
</defs>
</svg>
