<svg width="112" height="99" viewBox="0 0 112 99" fill="none" xmlns="http://www.w3.org/2000/svg">
<path d="M102.667 0H9.33333C4.18056 0 0 4.15723 0 9.28125V71.1562C0 76.2803 4.18056 80.4375 9.33333 80.4375H46.6667L43.5556 89.7188H29.5556C26.9694 89.7188 24.8889 91.7877 24.8889 94.3594C24.8889 96.9311 26.9694 99 29.5556 99H82.4444C85.0306 99 87.1111 96.9311 87.1111 94.3594C87.1111 91.7877 85.0306 89.7188 82.4444 89.7188H68.4444L65.3333 80.4375H102.667C107.819 80.4375 112 76.2803 112 71.1562V9.28125C112 4.15723 107.819 0 102.667 0ZM99.5556 68.0625H12.4444V12.375H99.5556V68.0625Z" fill="#161928"/>
</svg>
