<svg width="152" height="152" viewBox="0 0 152 152" fill="none" xmlns="http://www.w3.org/2000/svg">
<path d="M137.75 9.5H14.25C6.38281 9.5 0 15.8828 0 23.75V128.25C0 136.117 6.38281 142.5 14.25 142.5H137.75C145.617 142.5 152 136.117 152 128.25V23.75C152 15.8828 145.617 9.5 137.75 9.5ZM137.75 126.469C137.75 127.448 136.948 128.25 135.969 128.25H16.0312C15.0516 128.25 14.25 127.448 14.25 126.469V57H137.75V126.469Z" fill="white"/>
</svg>
